<?xml version="1.0" encoding="utf-8"?>
<!-- Generator: Adobe Illustrator 22.1.0, SVG Export Plug-In . SVG Version: 6.00 Build 0)  -->
<svg version="1.1" id="Layer_1" xmlns="http://www.w3.org/2000/svg" xmlns:xlink="http://www.w3.org/1999/xlink" x="0px" y="0px"
	 viewBox="0 0 100 100" style="enable-background:new 0 0 100 100;" xml:space="preserve">
<g>
	<path d="M13.6,46.2c0,1-0.3,1.7-0.8,2.1c-0.5,0.4-1.2,0.5-2.1,0.5H8.5v-0.1H9v-4.8H8.5v-0.1h2.2c0.9,0,1.6,0.2,2.1,0.6
		S13.6,45.4,13.6,46.2z M10.4,48.7h0.3c0.5,0,0.8-0.2,1-0.5c0.2-0.3,0.3-0.9,0.3-1.7V46c0-1.1-0.2-1.7-0.6-2
		c-0.2-0.1-0.5-0.2-0.8-0.2h-0.2V48.7z"/>
	<path d="M16.8,46.3h-0.4v2.4h0.5v0.1h-2.4v-0.1H15v-4.8h-0.5v-0.1h2.2c0.6,0,1.1,0,1.3,0.1c0.3,0.1,0.4,0.1,0.6,0.2
		c0.2,0.2,0.3,0.5,0.3,0.9s-0.1,0.7-0.3,0.9c-0.2,0.2-0.5,0.3-0.9,0.3v0c0.4,0.1,0.7,0.2,0.8,0.3c0.2,0.2,0.2,0.5,0.2,0.9v0.4
		c0,0.3,0,0.4,0,0.5c0,0.1,0.1,0.1,0.2,0.1s0.2,0,0.2-0.1s0.1-0.2,0.1-0.5l0.1,0c-0.1,0.4-0.1,0.7-0.3,0.8s-0.4,0.2-0.8,0.2
		s-0.7-0.1-0.8-0.3c-0.2-0.2-0.3-0.5-0.3-1v-0.5c0-0.3,0-0.5-0.1-0.6C17.1,46.3,17,46.3,16.8,46.3z M16.4,43.9v2.2h0.2
		c0.3,0,0.5-0.1,0.6-0.3c0.1-0.2,0.2-0.4,0.2-0.8v-0.2c0-0.4-0.1-0.6-0.2-0.8c-0.1-0.1-0.3-0.2-0.6-0.2H16.4z"/>
	<path d="M20.3,43.8h3.8l0.1,1.4H24c-0.2-0.5-0.4-0.8-0.6-1s-0.5-0.3-1-0.3h-0.3v2.2h0.2c0.2,0,0.4-0.1,0.6-0.3s0.3-0.4,0.3-0.7h0.1
		v2.1h-0.1c-0.1-0.4-0.2-0.6-0.4-0.8s-0.3-0.2-0.6-0.2h-0.2v2.3h0.3c0.4,0,0.8-0.1,1.1-0.4s0.5-0.6,0.6-1h0.1l-0.1,1.6h-4v-0.2h0.4
		v-4.8h-0.4V43.8z"/>
	<path d="M28.3,48.7l-0.5-1.6h-1.4l-0.6,1.6h0.5v0.1h-1.1v-0.1h0.3l1.8-5H28l1.8,5h0.3v0.1h-2.4v-0.1H28.3z M27,45.1L26.4,47h1.3
		L27,45.1z"/>
	<path d="M34.7,43.8h1.9v0.1h-0.4v4.8h0.4v0.1h-2.2v-0.1h0.4v-4.5h0l-1.1,4.7h-0.9l-1.3-4.7h0v4.6h0.4v0.1h-1v-0.1h0.4v-4.8h-0.4
		v-0.1h2l1,3.7L34.7,43.8z"/>
	<path d="M42.9,50.5c0.2,0,0.4-0.1,0.5-0.3s0.2-0.5,0.2-0.8s-0.1-0.7-0.4-1c-0.4,0.4-0.9,0.6-1.5,0.6s-1.2-0.1-1.5-0.3
		c-0.4-0.2-0.6-0.6-0.6-1c0-0.3,0.1-0.6,0.3-0.8c0.2-0.2,0.5-0.3,0.9-0.4c-0.4-0.4-0.6-0.8-0.6-1.3s0.2-0.8,0.5-1s0.7-0.4,1.2-0.4
		s0.8,0.1,1.1,0.3s0.4,0.4,0.4,0.7c0,0.5-0.4,0.9-1.2,1.2c0.1,0.1,0.3,0.2,0.5,0.3c0.5,0.3,0.9,0.6,1.1,0.8c0.1-0.3,0.1-0.7,0.1-1.1
		h-0.6v-0.1h1.3V46h-0.5c0,0.5-0.1,0.9-0.1,1.2c0.2,0.2,0.4,0.5,0.5,0.7s0.2,0.5,0.2,0.8c0,0.5-0.2,1-0.6,1.4s-0.8,0.6-1.3,0.6
		c-0.3,0-0.6-0.1-0.7-0.2s-0.3-0.3-0.3-0.5c0-0.2,0.1-0.4,0.2-0.5c0.1-0.1,0.3-0.2,0.4-0.2c0.4,0,0.6,0.2,0.6,0.5c0,0.1,0,0.2,0,0.3
		h-0.3C42.6,50.4,42.7,50.5,42.9,50.5z M41.9,48.7c0.5,0,0.9-0.2,1.2-0.6c-0.2-0.2-0.5-0.5-0.9-0.8c-0.7-0.5-1.1-0.8-1.3-0.9
		c-0.1,0.2-0.1,0.5-0.1,0.9c0,0.5,0.1,0.8,0.3,1C41.3,48.6,41.5,48.7,41.9,48.7z M41.3,44c-0.1,0.1-0.2,0.3-0.2,0.5s0.1,0.4,0.2,0.6
		c0.1,0.2,0.3,0.4,0.7,0.6c0.2-0.1,0.3-0.2,0.4-0.4c0.1-0.1,0.1-0.4,0.1-0.7c0-0.6-0.2-0.9-0.6-0.9C41.6,43.9,41.5,43.9,41.3,44z"/>
	<path d="M47.7,43.8h2.3v0.1h-0.4v2.2H51v-2.2h-0.4v-0.1h2.3v0.1h-0.4v4.8h0.4v0.1h-2.3v-0.1H51v-2.4h-1.4v2.4h0.4v0.1h-2.3v-0.1
		h0.4v-4.8h-0.4V43.8z"/>
	<path d="M56.6,48.7l-0.5-1.6h-1.4l-0.6,1.6h0.5v0.1h-1.1v-0.1h0.3l1.8-5h0.6l1.8,5h0.3v0.1h-2.4v-0.1H56.6z M55.4,45.1L54.7,47h1.3
		L55.4,45.1z"/>
	<path d="M59.2,43.8h2.1c0.7,0,1.3,0.1,1.6,0.3c0.4,0.2,0.5,0.6,0.5,1.1c0,0.6-0.2,1-0.7,1.2c-0.4,0.2-1,0.3-1.7,0.3h-0.1v1.9H62
		v0.1h-2.8v-0.1h0.5v-4.8h-0.5V43.8z M61.1,43.9v2.7h0.2c0.3,0,0.5-0.1,0.6-0.3c0.1-0.2,0.2-0.5,0.2-1V45c0-0.4-0.1-0.7-0.2-0.9
		c-0.1-0.2-0.3-0.2-0.6-0.2H61.1z"/>
	<path d="M64.3,43.8h2.1c0.7,0,1.3,0.1,1.6,0.3c0.4,0.2,0.5,0.6,0.5,1.1c0,0.6-0.2,1-0.7,1.2c-0.4,0.2-1,0.3-1.7,0.3h-0.1v1.9h0.9
		v0.1h-2.8v-0.1h0.5v-4.8h-0.5V43.8z M66.2,43.9v2.7h0.2c0.3,0,0.5-0.1,0.6-0.3c0.1-0.2,0.2-0.5,0.2-1V45c0-0.4-0.1-0.7-0.2-0.9
		c-0.1-0.2-0.3-0.2-0.6-0.2H66.2z"/>
	<path d="M69.5,43.8h2.2v0.1h-0.4v4.8h0.4v0.1h-2.2v-0.1h0.4v-4.8h-0.4V43.8z"/>
	<path d="M76.8,43.9v4.9h-1l-2.5-4.7v4.6h0.4v0.1h-1v-0.1h0.4v-4.8h-0.4v-0.1h2l1.9,3.6v-3.5h-0.4v-0.1h1v0.1H76.8z"/>
	<path d="M78,43.8h3.8l0.1,1.4h-0.1c-0.2-0.5-0.4-0.8-0.6-1c-0.2-0.2-0.5-0.3-1-0.3h-0.3v2.2h0.2c0.2,0,0.4-0.1,0.6-0.3
		c0.2-0.2,0.3-0.4,0.3-0.7h0.1v2.1H81c-0.1-0.4-0.2-0.6-0.4-0.8s-0.3-0.2-0.6-0.2h-0.2v2.3h0.3c0.4,0,0.8-0.1,1.1-0.4
		c0.3-0.3,0.5-0.6,0.6-1h0.1L82,48.9h-4v-0.2h0.4v-4.8H78V43.8z"/>
	<path d="M85.2,48.8c0.2,0,0.5-0.1,0.6-0.2c0.2-0.1,0.3-0.3,0.3-0.6c0-0.3-0.1-0.5-0.3-0.6c-0.2-0.1-0.5-0.3-0.9-0.4
		c-0.4-0.1-0.6-0.2-0.8-0.3s-0.3-0.2-0.5-0.3c-0.3-0.3-0.4-0.6-0.4-1.2c0-0.4,0.2-0.8,0.5-1.1c0.3-0.3,0.7-0.5,1.3-0.5
		c0.3,0,0.5,0,0.8,0.1c0.3,0.1,0.5,0.1,0.5,0.1c0.1,0,0.1,0,0.2-0.1h0.1l0,1.5h-0.1c-0.2-0.4-0.5-0.8-0.7-1
		c-0.3-0.3-0.5-0.4-0.8-0.4s-0.5,0.1-0.7,0.2S84,44.4,84,44.6c0,0.2,0.1,0.4,0.3,0.5c0.2,0.1,0.4,0.2,0.7,0.3s0.5,0.1,0.6,0.2
		c0.1,0,0.2,0.1,0.3,0.1c0.1,0.1,0.2,0.1,0.3,0.2c0.1,0.1,0.2,0.1,0.3,0.2c0.1,0.1,0.2,0.2,0.2,0.3c0.1,0.2,0.2,0.5,0.2,0.8
		c0,0.5-0.2,0.9-0.5,1.3s-0.8,0.5-1.3,0.5c-0.3,0-0.6,0-0.9-0.1c-0.4-0.1-0.6-0.1-0.6-0.1c-0.1,0-0.1,0.1-0.2,0.2h-0.1l-0.1-1.7h0.1
		c0.2,0.4,0.5,0.8,0.8,1.1C84.5,48.6,84.9,48.8,85.2,48.8z"/>
	<path d="M90,48.8c0.2,0,0.5-0.1,0.6-0.2c0.2-0.1,0.3-0.3,0.3-0.6c0-0.3-0.1-0.5-0.3-0.6c-0.2-0.1-0.5-0.3-0.9-0.4
		c-0.4-0.1-0.6-0.2-0.8-0.3s-0.3-0.2-0.5-0.3c-0.3-0.3-0.4-0.6-0.4-1.2c0-0.4,0.2-0.8,0.5-1.1c0.3-0.3,0.7-0.5,1.3-0.5
		c0.3,0,0.5,0,0.8,0.1c0.3,0.1,0.5,0.1,0.5,0.1c0.1,0,0.1,0,0.2-0.1h0.1l0,1.5h-0.1c-0.2-0.4-0.5-0.8-0.7-1
		c-0.3-0.3-0.5-0.4-0.8-0.4s-0.5,0.1-0.7,0.2s-0.2,0.3-0.2,0.6c0,0.2,0.1,0.4,0.3,0.5c0.2,0.1,0.4,0.2,0.7,0.3s0.5,0.1,0.6,0.2
		c0.1,0,0.2,0.1,0.3,0.1c0.1,0.1,0.2,0.1,0.3,0.2c0.1,0.1,0.2,0.1,0.3,0.2c0.1,0.1,0.2,0.2,0.2,0.3c0.1,0.2,0.2,0.5,0.2,0.8
		c0,0.5-0.2,0.9-0.5,1.3s-0.8,0.5-1.3,0.5c-0.3,0-0.6,0-0.9-0.1c-0.4-0.1-0.6-0.1-0.6-0.1c-0.1,0-0.1,0.1-0.2,0.2h-0.1L88,47.2h0.1
		c0.2,0.4,0.5,0.8,0.8,1.1C89.3,48.6,89.6,48.8,90,48.8z"/>
</g>
</svg>
