<?xml version="1.0" encoding="utf-8"?>
<!-- Generator: Adobe Illustrator 22.1.0, SVG Export Plug-In . SVG Version: 6.00 Build 0)  -->
<svg version="1.1" id="Layer_1" xmlns="http://www.w3.org/2000/svg" xmlns:xlink="http://www.w3.org/1999/xlink" x="0px" y="0px"
	 viewBox="0 0 100 100" style="enable-background:new 0 0 100 100;" xml:space="preserve">
<style type="text/css">
	.st0{fill:#010101;}
</style>
<g>
	<path class="st0" d="M30.4,38.1c0,1-0.3,1.7-0.8,2.1c-0.5,0.4-1.2,0.5-2.1,0.5h-2.1v-0.1h0.5v-4.8h-0.5v-0.1h2.2
		c0.9,0,1.6,0.2,2.1,0.6S30.4,37.2,30.4,38.1z M27.3,40.6h0.3c0.5,0,0.8-0.2,1-0.5c0.2-0.3,0.3-0.9,0.3-1.7v-0.4
		c0-1.1-0.2-1.7-0.6-2c-0.2-0.1-0.5-0.2-0.8-0.2h-0.2V40.6z"/>
	<path class="st0" d="M33.6,38.2h-0.4v2.4h0.5v0.1h-2.4v-0.1h0.5v-4.8h-0.5v-0.1h2.2c0.6,0,1.1,0,1.3,0.1c0.3,0.1,0.4,0.1,0.6,0.2
		c0.2,0.2,0.3,0.5,0.3,0.9s-0.1,0.7-0.3,0.9c-0.2,0.2-0.5,0.3-0.9,0.3v0c0.4,0.1,0.7,0.2,0.8,0.3c0.2,0.2,0.2,0.5,0.2,0.9v0.4
		c0,0.3,0,0.4,0,0.5c0,0.1,0.1,0.1,0.2,0.1s0.2,0,0.2-0.1s0.1-0.2,0.1-0.5l0.1,0c-0.1,0.4-0.1,0.7-0.3,0.8s-0.4,0.2-0.8,0.2
		s-0.7-0.1-0.8-0.3c-0.2-0.2-0.3-0.5-0.3-1V39c0-0.3,0-0.5-0.1-0.6C34,38.2,33.8,38.2,33.6,38.2z M33.3,35.8V38h0.2
		c0.3,0,0.5-0.1,0.6-0.3c0.1-0.2,0.2-0.4,0.2-0.8v-0.2c0-0.4-0.1-0.6-0.2-0.8c-0.1-0.1-0.3-0.2-0.6-0.2H33.3z"/>
	<path class="st0" d="M37.2,35.7h3.8l0.1,1.4h-0.1c-0.2-0.5-0.4-0.8-0.6-1s-0.5-0.3-1-0.3H39v2.2h0.2c0.2,0,0.4-0.1,0.6-0.3
		s0.3-0.4,0.3-0.7h0.1v2.1h-0.1c-0.1-0.4-0.2-0.6-0.4-0.8s-0.3-0.2-0.6-0.2H39v2.3h0.3c0.4,0,0.8-0.1,1.1-0.4s0.5-0.6,0.6-1h0.1
		l-0.1,1.6h-4v-0.2h0.4v-4.8h-0.4V35.7z"/>
	<path class="st0" d="M45.1,40.6L44.6,39h-1.4l-0.6,1.6h0.5v0.1H42v-0.1h0.3l1.8-5h0.6l1.8,5H47v0.1h-2.4v-0.1H45.1z M43.9,37
		l-0.7,1.9h1.3L43.9,37z"/>
	<path class="st0" d="M51.5,35.7h1.9v0.1h-0.4v4.8h0.4v0.1h-2.2v-0.1h0.4v-4.5h0l-1.1,4.7h-0.9l-1.3-4.7h0v4.6h0.4v0.1h-1v-0.1h0.4
		v-4.8h-0.4v-0.1h2l1,3.7L51.5,35.7z"/>
</g>
<path class="st0" d="M28.7,50.4c0.2,0,0.4-0.1,0.5-0.3s0.2-0.5,0.2-0.8s-0.1-0.7-0.4-1c-0.4,0.4-0.9,0.6-1.5,0.6s-1.2-0.1-1.5-0.3
	c-0.4-0.2-0.6-0.6-0.6-1c0-0.3,0.1-0.6,0.3-0.8c0.2-0.2,0.5-0.3,0.9-0.4c-0.4-0.4-0.6-0.8-0.6-1.3s0.2-0.8,0.5-1s0.7-0.4,1.2-0.4
	s0.8,0.1,1.1,0.3s0.4,0.4,0.4,0.7c0,0.5-0.4,0.9-1.2,1.2c0.1,0.1,0.3,0.2,0.5,0.3c0.5,0.3,0.9,0.6,1.1,0.8c0.1-0.3,0.1-0.7,0.1-1.1
	h-0.6v-0.1h1.3v0.1h-0.5c0,0.5-0.1,0.9-0.1,1.2c0.2,0.2,0.4,0.5,0.5,0.7s0.2,0.5,0.2,0.8c0,0.5-0.2,1-0.6,1.4s-0.8,0.6-1.3,0.6
	c-0.3,0-0.6-0.1-0.7-0.2s-0.3-0.3-0.3-0.5c0-0.2,0.1-0.4,0.2-0.5c0.1-0.1,0.3-0.2,0.4-0.2c0.4,0,0.6,0.2,0.6,0.5c0,0.1,0,0.2,0,0.3
	h-0.3C28.3,50.3,28.4,50.4,28.7,50.4z M27.7,48.7c0.5,0,0.9-0.2,1.2-0.6c-0.2-0.2-0.5-0.5-0.9-0.8c-0.7-0.5-1.1-0.8-1.3-0.9
	c-0.1,0.2-0.1,0.5-0.1,0.9c0,0.5,0.1,0.8,0.3,1C27,48.6,27.3,48.7,27.7,48.7z M27.1,44c-0.1,0.1-0.2,0.3-0.2,0.5s0.1,0.4,0.2,0.6
	c0.1,0.2,0.3,0.4,0.7,0.6c0.2-0.1,0.3-0.2,0.4-0.4c0.1-0.1,0.1-0.4,0.1-0.7c0-0.6-0.2-0.9-0.6-0.9C27.4,43.8,27.2,43.9,27.1,44z"/>
<g>
	<path class="st0" d="M25.4,52.9h2.3V53h-0.4v2.2h1.4V53h-0.4v-0.1h2.3V53h-0.4v4.8h0.4V58h-2.3v-0.1h0.4v-2.4h-1.4v2.4h0.4V58h-2.3
		v-0.1h0.4V53h-0.4V52.9z"/>
	<path class="st0" d="M34.4,57.8l-0.5-1.6h-1.4l-0.6,1.6h0.5V58h-1.1v-0.1h0.3l1.8-5h0.6l1.8,5h0.3V58h-2.4v-0.1H34.4z M33.1,54.2
		l-0.7,1.9h1.3L33.1,54.2z"/>
	<path class="st0" d="M36.9,52.9H39c0.7,0,1.3,0.1,1.6,0.3c0.4,0.2,0.5,0.6,0.5,1.1c0,0.6-0.2,1-0.7,1.2c-0.4,0.2-1,0.3-1.7,0.3
		h-0.1v1.9h0.9V58h-2.8v-0.1h0.5V53h-0.5V52.9z M38.8,53v2.7h0.2c0.3,0,0.5-0.1,0.6-0.3c0.1-0.2,0.2-0.5,0.2-1v-0.3
		c0-0.4-0.1-0.7-0.2-0.9C39.5,53.1,39.3,53,39,53H38.8z"/>
	<path class="st0" d="M42,52.9h2.1c0.7,0,1.3,0.1,1.6,0.3c0.4,0.2,0.5,0.6,0.5,1.1c0,0.6-0.2,1-0.7,1.2c-0.4,0.2-1,0.3-1.7,0.3h-0.1
		v1.9h0.9V58H42v-0.1h0.5V53H42V52.9z M43.9,53v2.7h0.2c0.3,0,0.5-0.1,0.6-0.3c0.1-0.2,0.2-0.5,0.2-1v-0.3c0-0.4-0.1-0.7-0.2-0.9
		c-0.1-0.2-0.3-0.2-0.6-0.2H43.9z"/>
	<path class="st0" d="M47.3,52.9h2.2V53h-0.4v4.8h0.4V58h-2.2v-0.1h0.4V53h-0.4V52.9z"/>
	<path class="st0" d="M54.5,53V58h-1L51,53.3v4.6h0.4V58h-1v-0.1h0.4V53h-0.4v-0.1h2l1.9,3.6V53h-0.4v-0.1h1V53H54.5z"/>
	<path class="st0" d="M55.7,52.9h3.8l0.1,1.4h-0.1c-0.2-0.5-0.4-0.8-0.6-1c-0.2-0.2-0.5-0.3-1-0.3h-0.3v2.2h0.2
		c0.2,0,0.4-0.1,0.6-0.3c0.2-0.2,0.3-0.4,0.3-0.7h0.1v2.1h-0.1c-0.1-0.4-0.2-0.6-0.4-0.8s-0.3-0.2-0.6-0.2h-0.2v2.3h0.3
		c0.4,0,0.8-0.1,1.1-0.4c0.3-0.3,0.5-0.6,0.6-1h0.1L59.7,58h-4v-0.2h0.4V53h-0.4V52.9z"/>
	<path class="st0" d="M62.9,57.9c0.2,0,0.5-0.1,0.6-0.2c0.2-0.1,0.3-0.3,0.3-0.6c0-0.3-0.1-0.5-0.3-0.6c-0.2-0.1-0.5-0.3-0.9-0.4
		c-0.4-0.1-0.6-0.2-0.8-0.3s-0.3-0.2-0.5-0.3c-0.3-0.3-0.4-0.6-0.4-1.2c0-0.4,0.2-0.8,0.5-1.1c0.3-0.3,0.7-0.5,1.3-0.5
		c0.3,0,0.5,0,0.8,0.1C63.8,53,63.9,53,64,53c0.1,0,0.1,0,0.2-0.1h0.1l0,1.5h-0.1c-0.2-0.4-0.5-0.8-0.7-1c-0.3-0.3-0.5-0.4-0.8-0.4
		S62.1,53,62,53.2s-0.2,0.3-0.2,0.6c0,0.2,0.1,0.4,0.3,0.5c0.2,0.1,0.4,0.2,0.7,0.3s0.5,0.1,0.6,0.2c0.1,0,0.2,0.1,0.3,0.1
		c0.1,0.1,0.2,0.1,0.3,0.2c0.1,0.1,0.2,0.1,0.3,0.2c0.1,0.1,0.2,0.2,0.2,0.3c0.1,0.2,0.2,0.5,0.2,0.8c0,0.5-0.2,0.9-0.5,1.3
		S63.4,58,62.9,58c-0.3,0-0.6,0-0.9-0.1c-0.4-0.1-0.6-0.1-0.6-0.1c-0.1,0-0.1,0.1-0.2,0.2H61L61,56.3h0.1c0.2,0.4,0.5,0.8,0.8,1.1
		C62.2,57.7,62.6,57.9,62.9,57.9z"/>
	<path class="st0" d="M67.7,57.9c0.2,0,0.5-0.1,0.6-0.2c0.2-0.1,0.3-0.3,0.3-0.6c0-0.3-0.1-0.5-0.3-0.6c-0.2-0.1-0.5-0.3-0.9-0.4
		c-0.4-0.1-0.6-0.2-0.8-0.3s-0.3-0.2-0.5-0.3c-0.3-0.3-0.4-0.6-0.4-1.2c0-0.4,0.2-0.8,0.5-1.1c0.3-0.3,0.7-0.5,1.3-0.5
		c0.3,0,0.5,0,0.8,0.1c0.3,0.1,0.5,0.1,0.5,0.1c0.1,0,0.1,0,0.2-0.1H69l0,1.5H69c-0.2-0.4-0.5-0.8-0.7-1c-0.3-0.3-0.5-0.4-0.8-0.4
		s-0.5,0.1-0.7,0.2s-0.2,0.3-0.2,0.6c0,0.2,0.1,0.4,0.3,0.5c0.2,0.1,0.4,0.2,0.7,0.3s0.5,0.1,0.6,0.2c0.1,0,0.2,0.1,0.3,0.1
		c0.1,0.1,0.2,0.1,0.3,0.2c0.1,0.1,0.2,0.1,0.3,0.2c0.1,0.1,0.2,0.2,0.2,0.3c0.1,0.2,0.2,0.5,0.2,0.8c0,0.5-0.2,0.9-0.5,1.3
		S68.1,58,67.6,58c-0.3,0-0.6,0-0.9-0.1c-0.4-0.1-0.6-0.1-0.6-0.1c-0.1,0-0.1,0.1-0.2,0.2h-0.1l-0.1-1.7h0.1
		c0.2,0.4,0.5,0.8,0.8,1.1C67,57.7,67.3,57.9,67.7,57.9z"/>
</g>
<rect x="25.4" y="32.8" class="st0" width="43.9" height="0.2"/>
<rect x="25.4" y="60.2" class="st0" width="43.9" height="0.2"/>
</svg>
