			<tr>
				<td class="row-title">
					<label for="tablecell">
						<em>Nguyenthikimoanh1008@gmail.com Has Signed Up To A Lot Of Lists Very Recently; We're Not Allowing More Signups For Now</em>
					</label>
				</td>
				<td>
					Page: process_form_submission_ajax.php || 
					Type: New Subscriber || 
					Time: November 23, 2018 11:55 am				</td>
			</tr>
					<tr>
				<td class="row-title">
					<label for="tablecell">
						<em>Nhinhi.buh@gmail.con Looks Fake Or Invalid, Please Enter A Real Email Address.</em>
					</label>
				</td>
				<td>
					Page: process_form_submission_ajax.php || 
					Type: New Subscriber || 
					Time: November 23, 2018 11:35 am				</td>
			</tr>
					<tr>
				<td class="row-title">
					<label for="tablecell">
						<em>Nhinhi.buh@gmail.con Looks Fake Or Invalid, Please Enter A Real Email Address.</em>
					</label>
				</td>
				<td>
					Page: process_form_submission_ajax.php || 
					Type: New Subscriber || 
					Time: November 23, 2018 11:27 am				</td>
			</tr>
					<tr>
				<td class="row-title">
					<label for="tablecell">
						<em>Nhinhi.buh@gmail.con Looks Fake Or Invalid, Please Enter A Real Email Address.</em>
					</label>
				</td>
				<td>
					Page: process_form_submission_ajax.php || 
					Type: New Subscriber || 
					Time: November 23, 2018 11:24 am				</td>
			</tr>
					<tr>
				<td class="row-title">
					<label for="tablecell">
						<em>Nguyenthikimoanh1008@gmail.com Has Signed Up To A Lot Of Lists Very Recently; We're Not Allowing More Signups For Now</em>
					</label>
				</td>
				<td>
					Page: process_form_submission_ajax.php || 
					Type: New Subscriber || 
					Time: November 23, 2018 11:24 am				</td>
			</tr>
					<tr>
				<td class="row-title">
					<label for="tablecell">
						<em>Nhinhi.buh@gmail.con Looks Fake Or Invalid, Please Enter A Real Email Address.</em>
					</label>
				</td>
				<td>
					Page: process_form_submission_ajax.php || 
					Type: New Subscriber || 
					Time: November 23, 2018 10:28 am				</td>
			</tr>
					<tr>
				<td class="row-title">
					<label for="tablecell">
						<em>Nhinhi.buh@gmail.con Looks Fake Or Invalid, Please Enter A Real Email Address.</em>
					</label>
				</td>
				<td>
					Page: process_form_submission_ajax.php || 
					Type: New Subscriber || 
					Time: November 23, 2018 10:20 am				</td>
			</tr>
					<tr>
				<td class="row-title">
					<label for="tablecell">
						<em>The Requested Resource Could Not Be Found.</em>
					</label>
				</td>
				<td>
					Page: process_form_submission_ajax.php || 
					Type: New Subscriber || 
					Time: November 21, 2018 10:48 am				</td>
			</tr>
					<tr>
				<td class="row-title">
					<label for="tablecell">
						<em>Resource Not Found</em>
					</label>
				</td>
				<td>
					Page: yikes-mailchimp-subscriber-count.php || 
					Type: Get Account Lists || 
					Time: November 21, 2018 10:42 am				</td>
			</tr>
					<tr>
				<td class="row-title">
					<label for="tablecell">
						<em>Resource Not Found</em>
					</label>
				</td>
				<td>
					Page: Edit Form Page || 
					Type: Get Interest Groups || 
					Time: November 21, 2018 10:37 am				</td>
			</tr>
					<tr>
				<td class="row-title">
					<label for="tablecell">
						<em>Resource Not Found</em>
					</label>
				</td>
				<td>
					Page: Edit Form Page || 
					Type: Get Merge Variables || 
					Time: November 21, 2018 10:37 am				</td>
			</tr>
					<tr>
				<td class="row-title">
					<label for="tablecell">
						<em>Resource Not Found</em>
					</label>
				</td>
				<td>
					Page: Edit Form Page || 
					Type: Get Interest Groups || 
					Time: November 21, 2018 10:37 am				</td>
			</tr>
					<tr>
				<td class="row-title">
					<label for="tablecell">
						<em>Resource Not Found</em>
					</label>
				</td>
				<td>
					Page: Edit Form Page || 
					Type: Get Merge Variables || 
					Time: November 21, 2018 10:37 am				</td>
			</tr>
					<tr>
				<td class="row-title">
					<label for="tablecell">
						<em>Resource Not Found</em>
					</label>
				</td>
				<td>
					Page: Edit Form Page || 
					Type: Get Interest Groups || 
					Time: November 21, 2018 10:37 am				</td>
			</tr>
					<tr>
				<td class="row-title">
					<label for="tablecell">
						<em>Resource Not Found</em>
					</label>
				</td>
				<td>
					Page: Edit Form Page || 
					Type: Get Merge Variables || 
					Time: November 21, 2018 10:37 am				</td>
			</tr>
					<tr>
				<td class="row-title">
					<label for="tablecell">
						<em>Resource Not Found</em>
					</label>
				</td>
				<td>
					Page: yikes-mailchimp-subscriber-count.php || 
					Type: Get Account Lists || 
					Time: November 21, 2018 10:37 am				</td>
			</tr>
					<tr>
				<td class="row-title">
					<label for="tablecell">
						<em>The Requested Resource Could Not Be Found.</em>
					</label>
				</td>
				<td>
					Page: process_form_submission_ajax.php || 
					Type: New Subscriber || 
					Time: November 21, 2018 10:35 am				</td>
			</tr>
					<tr>
				<td class="row-title">
					<label for="tablecell">
						<em>The Requested Resource Could Not Be Found.</em>
					</label>
				</td>
				<td>
					Page: process_form_submission_ajax.php || 
					Type: New Subscriber || 
					Time: November 21, 2018 10:18 am				</td>
			</tr>
					<tr>
				<td class="row-title">
					<label for="tablecell">
						<em>The Requested Resource Could Not Be Found.</em>
					</label>
				</td>
				<td>
					Page: process_form_submission_ajax.php || 
					Type: New Subscriber || 
					Time: November 21, 2018 10:17 am				</td>
			</tr>
					<tr>
				<td class="row-title">
					<label for="tablecell">
						<em>The Requested Resource Could Not Be Found.</em>
					</label>
				</td>
				<td>
					Page: process_form_submission_ajax.php || 
					Type: New Subscriber || 
					Time: November 21, 2018 10:15 am				</td>
			</tr>
					<tr>
				<td class="row-title">
					<label for="tablecell">
						<em>Resource Not Found</em>
					</label>
				</td>
				<td>
					Page: yikes-mailchimp-subscriber-count.php || 
					Type: Get Account Lists || 
					Time: November 21, 2018 10:07 am				</td>
			</tr>
					<tr>
				<td class="row-title">
					<label for="tablecell">
						<em>The Requested Resource Could Not Be Found.</em>
					</label>
				</td>
				<td>
					Page: process_form_submission_ajax.php || 
					Type: New Subscriber || 
					Time: November 21, 2018 10:06 am				</td>
			</tr>
		